{
    "key": "group_5fabb4a3e5a82",
    "title": "Page builder",
    "fields": [
        {
            "key": "field_5fabb54de1b8a",
            "label": "Page builder",
            "name": "page_builder",
            "type": "flexible_content",
            "instructions": "",
            "required": 0,
            "conditional_logic": 0,
            "wrapper": {
                "width": "",
                "class": "",
                "id": ""
            },
            "layouts": {
                "layout_5fabb5569ba12": {
                    "key": "layout_5fabb5569ba12",
                    "name": "hero_slider",
                    "label": "Section : Hero slider",
                    "display": "block",
                    "sub_fields": [
                        {
                            "key": "field_5fabb562e1b8b",
                            "label": "Hero slider",
                            "name": "hero_slider",
                            "type": "clone",
                            "instructions": "",
                            "required": 0,
                            "conditional_logic": 0,
                            "wrapper": {
                                "width": "",
                                "class": "",
                                "id": ""
                            },
                            "clone": [
                                "group_5fabb3e6206a2"
                            ],
                            "display": "seamless",
                            "layout": "block",
                            "prefix_label": 0,
                            "prefix_name": 0
                        }
                    ],
                    "min": "",
                    "max": ""
                },
                "layout_5fabcb66c7fca": {
                    "key": "layout_5fabcb66c7fca",
                    "name": "cta",
                    "label": "Section : CTA",
                    "display": "block",
                    "sub_fields": [
                        {
                            "key": "field_5fabcb66c7fcb",
                            "label": "CTA",
                            "name": "cta",
                            "type": "clone",
                            "instructions": "",
                            "required": 0,
                            "conditional_logic": 0,
                            "wrapper": {
                                "width": "",
                                "class": "",
                                "id": ""
                            },
                            "clone": [
                                "group_5fabc9cb466ee"
                            ],
                            "display": "seamless",
                            "layout": "block",
                            "prefix_label": 0,
                            "prefix_name": 0
                        }
                    ],
                    "min": "",
                    "max": ""
                },
                "layout_5fabd4956bd55": {
                    "key": "layout_5fabd4956bd55",
                    "name": "paragraph_image",
                    "label": "Section : Paragraph with image",
                    "display": "block",
                    "sub_fields": [
                        {
                            "key": "field_5fabd4956bd56",
                            "label": "Paragraph with image",
                            "name": "paragraph_image",
                            "type": "clone",
                            "instructions": "",
                            "required": 0,
                            "conditional_logic": 0,
                            "wrapper": {
                                "width": "",
                                "class": "",
                                "id": ""
                            },
                            "clone": [
                                "group_5fabd3d332e41"
                            ],
                            "display": "seamless",
                            "layout": "block",
                            "prefix_label": 0,
                            "prefix_name": 0
                        }
                    ],
                    "min": "",
                    "max": ""
                },
                "layout_5fe498e6519ca": {
                    "key": "layout_5fe498e6519ca",
                    "name": "single_image",
                    "label": "Section : Single image",
                    "display": "block",
                    "sub_fields": [
                        {
                            "key": "field_5fe498e7519cb",
                            "label": "Single image",
                            "name": "single_image",
                            "type": "clone",
                            "instructions": "",
                            "required": 0,
                            "conditional_logic": 0,
                            "wrapper": {
                                "width": "",
                                "class": "",
                                "id": ""
                            },
                            "clone": [
                                "group_5fe498668bae7"
                            ],
                            "display": "seamless",
                            "layout": "block",
                            "prefix_label": 0,
                            "prefix_name": 0
                        }
                    ],
                    "min": "",
                    "max": ""
                },
                "layout_5fabe96cfd8a0": {
                    "key": "layout_5fabe96cfd8a0",
                    "name": "testimonials",
                    "label": "Section : Testimonials",
                    "display": "block",
                    "sub_fields": [
                        {
                            "key": "field_5fabe96cfd8a1",
                            "label": "Testimonials",
                            "name": "testimonials",
                            "type": "clone",
                            "instructions": "",
                            "required": 0,
                            "conditional_logic": 0,
                            "wrapper": {
                                "width": "",
                                "class": "",
                                "id": ""
                            },
                            "clone": [
                                "group_5fabe8115daca"
                            ],
                            "display": "seamless",
                            "layout": "block",
                            "prefix_label": 0,
                            "prefix_name": 0
                        }
                    ],
                    "min": "",
                    "max": ""
                },
                "layout_5fe4fc2bc0d69": {
                    "key": "layout_5fe4fc2bc0d69",
                    "name": "services",
                    "label": "Section : Services",
                    "display": "block",
                    "sub_fields": [
                        {
                            "key": "field_5fe4fc2bc0d6a",
                            "label": "Services",
                            "name": "services",
                            "type": "clone",
                            "instructions": "",
                            "required": 0,
                            "conditional_logic": 0,
                            "wrapper": {
                                "width": "",
                                "class": "",
                                "id": ""
                            },
                            "clone": [
                                "group_5fe4f7a055963"
                            ],
                            "display": "seamless",
                            "layout": "block",
                            "prefix_label": 0,
                            "prefix_name": 0
                        }
                    ],
                    "min": "",
                    "max": ""
                },
                "layout_5fabe909c20de": {
                    "key": "layout_5fabe909c20de",
                    "name": "latest_posts",
                    "label": "Section : Latest posts",
                    "display": "block",
                    "sub_fields": [
                        {
                            "key": "field_5fabe909c20df",
                            "label": "Latest posts",
                            "name": "latest_posts",
                            "type": "clone",
                            "instructions": "",
                            "required": 0,
                            "conditional_logic": 0,
                            "wrapper": {
                                "width": "",
                                "class": "",
                                "id": ""
                            },
                            "clone": [
                                "group_5fabe86175b4f"
                            ],
                            "display": "seamless",
                            "layout": "block",
                            "prefix_label": 0,
                            "prefix_name": 0
                        }
                    ],
                    "min": "",
                    "max": ""
                },
                "layout_5fabf565d5a1c": {
                    "key": "layout_5fabf565d5a1c",
                    "name": "content_pushes",
                    "label": "Section : Content pushes",
                    "display": "block",
                    "sub_fields": [
                        {
                            "key": "field_5fabf565d5a1d",
                            "label": "Content pushes",
                            "name": "content_pushes",
                            "type": "clone",
                            "instructions": "",
                            "required": 0,
                            "conditional_logic": 0,
                            "wrapper": {
                                "width": "",
                                "class": "",
                                "id": ""
                            },
                            "clone": [
                                "group_5fabee78827a1"
                            ],
                            "display": "seamless",
                            "layout": "block",
                            "prefix_label": 0,
                            "prefix_name": 0
                        }
                    ],
                    "min": "",
                    "max": ""
                },
                "layout_5fc124e19d0a6": {
                    "key": "layout_5fc124e19d0a6",
                    "name": "linked_images",
                    "label": "Section : Linked images",
                    "display": "block",
                    "sub_fields": [
                        {
                            "key": "field_5fc124e19d0a7",
                            "label": "Linked images",
                            "name": "linked_images",
                            "type": "clone",
                            "instructions": "",
                            "required": 0,
                            "conditional_logic": 0,
                            "wrapper": {
                                "width": "",
                                "class": "",
                                "id": ""
                            },
                            "clone": [
                                "group_5fc1242577c74"
                            ],
                            "display": "seamless",
                            "layout": "block",
                            "prefix_label": 0,
                            "prefix_name": 0
                        }
                    ],
                    "min": "",
                    "max": ""
                },
                "layout_5fc6330a5a244": {
                    "key": "layout_5fc6330a5a244",
                    "name": "contact",
                    "label": "Section : Contact",
                    "display": "block",
                    "sub_fields": [
                        {
                            "key": "field_5fc6330a5a245",
                            "label": "Contact",
                            "name": "contact",
                            "type": "clone",
                            "instructions": "",
                            "required": 0,
                            "conditional_logic": 0,
                            "wrapper": {
                                "width": "",
                                "class": "",
                                "id": ""
                            },
                            "clone": [
                                "group_5fc632a63276d"
                            ],
                            "display": "seamless",
                            "layout": "block",
                            "prefix_label": 0,
                            "prefix_name": 0
                        }
                    ],
                    "min": "",
                    "max": ""
                },
                "layout_5fe5d0b101aa8": {
                    "key": "layout_5fe5d0b101aa8",
                    "name": "header",
                    "label": "Section : Full width header",
                    "display": "block",
                    "sub_fields": [
                        {
                            "key": "field_5fe5d0b101aa9",
                            "label": "Header",
                            "name": "header",
                            "type": "clone",
                            "instructions": "",
                            "required": 0,
                            "conditional_logic": 0,
                            "wrapper": {
                                "width": "",
                                "class": "",
                                "id": ""
                            },
                            "clone": [
                                "group_5fe5d0349b028"
                            ],
                            "display": "seamless",
                            "layout": "block",
                            "prefix_label": 0,
                            "prefix_name": 0
                        }
                    ],
                    "min": "",
                    "max": ""
                },
                "layout_5fe9d28848022": {
                    "key": "layout_5fe9d28848022",
                    "name": "logotypes",
                    "label": "Section : Logotypes",
                    "display": "block",
                    "sub_fields": [
                        {
                            "key": "field_5fe9d28848023",
                            "label": "Logotypes",
                            "name": "logotypes",
                            "type": "clone",
                            "instructions": "",
                            "required": 0,
                            "conditional_logic": 0,
                            "wrapper": {
                                "width": "",
                                "class": "",
                                "id": ""
                            },
                            "clone": [
                                "group_5fe9d23514633"
                            ],
                            "display": "seamless",
                            "layout": "block",
                            "prefix_label": 0,
                            "prefix_name": 0
                        }
                    ],
                    "min": "",
                    "max": ""
                },
                "layout_5fe9f75ef52dc": {
                    "key": "layout_5fe9f75ef52dc",
                    "name": "steps",
                    "label": "Section : Steps",
                    "display": "block",
                    "sub_fields": [
                        {
                            "key": "field_5fe9f75ef52dd",
                            "label": "Steps",
                            "name": "steps",
                            "type": "clone",
                            "instructions": "",
                            "required": 0,
                            "conditional_logic": 0,
                            "wrapper": {
                                "width": "",
                                "class": "",
                                "id": ""
                            },
                            "clone": [
                                "group_5fe9f6ee20420"
                            ],
                            "display": "seamless",
                            "layout": "block",
                            "prefix_label": 0,
                            "prefix_name": 0
                        }
                    ],
                    "min": "",
                    "max": ""
                },
                "layout_5fea1d36daa6b": {
                    "key": "layout_5fea1d36daa6b",
                    "name": "map",
                    "label": "Section : Map",
                    "display": "block",
                    "sub_fields": [
                        {
                            "key": "field_5fea1d36daa6c",
                            "label": "Map",
                            "name": "map",
                            "type": "clone",
                            "instructions": "",
                            "required": 0,
                            "conditional_logic": 0,
                            "wrapper": {
                                "width": "",
                                "class": "",
                                "id": ""
                            },
                            "clone": [
                                "group_5fea1cb600368"
                            ],
                            "display": "seamless",
                            "layout": "block",
                            "prefix_label": 0,
                            "prefix_name": 0
                        }
                    ],
                    "min": "",
                    "max": ""
                }
            },
            "button_label": "Add section",
            "min": "",
            "max": ""
        }
    ],
    "location": [
        [
            {
                "param": "post_type",
                "operator": "==",
                "value": "post"
            }
        ],
        [
            {
                "param": "post_type",
                "operator": "==",
                "value": "page"
            }
        ]
    ],
    "menu_order": 0,
    "position": "acf_after_title",
    "style": "default",
    "label_placement": "top",
    "instruction_placement": "label",
    "hide_on_screen": [
        "the_content",
        "excerpt",
        "discussion",
        "comments",
        "categories",
        "tags",
        "send-trackbacks"
    ],
    "active": true,
    "description": "",
    "modified": 1609178460
}