<svg xmlns="http://www.w3.org/2000/svg" width="14" height="13">
    <path fill="#000000" fill-rule="evenodd" d="M9.073 8.137a4.868 4.868 0 0 0-.353-6.635A5.146 5.146 0 0 0 5.111.049a5.146 5.146 0 0 0-3.609 1.453 4.86 4.86 0 0 0 0 7.017 5.15 5.15 0 0 0 3.609 1.453 5.153 5.153 0 0 0 3.216-1.11l3.877 3.77a.535.535 0 0 0 .747 0 .504.504 0 0 0 0-.726L9.073 8.137zm-6.824-.344a3.854 3.854 0 0 1 0-5.565 4.08 4.08 0 0 1 2.862-1.152 4.08 4.08 0 0 1 2.862 1.152 3.863 3.863 0 0 1 0 5.565 4.08 4.08 0 0 1-2.862 1.153 4.08 4.08 0 0 1-2.862-1.153z"/>
</svg>
