<svg xmlns="http://www.w3.org/2000/svg" width="16" height="13">
    <path fill="#000000" fill-rule="evenodd" d="M.017 11.537c1.764.162 3.356-.275 4.795-1.354-1.505-.133-2.512-.876-3.064-2.265.259.01.489.035.72.025.232-.007.466-.047.7-.088C1.561 7.358.698 6.293.602 4.614c.461.201.922.362 1.436.367C.581 3.778.264 2.333 1.049.606c1.799 2.103 4.048 3.251 6.799 3.44-.02-.209-.048-.398-.056-.587-.049-1.016.3-1.879 1.05-2.568.824-.757 1.806-1.007 2.899-.804a3.066 3.066 0 0 1 1.635.873c.067.068.127.088.226.066a6.603 6.603 0 0 0 1.755-.658c.05-.027.101-.05.15-.074.008-.003.017 0 .044 0-.25.739-.709 1.306-1.351 1.742.621-.045 1.201-.232 1.797-.472a6.263 6.263 0 0 1-1.01 1.176c-.161.146-.33.282-.503.415a.267.267 0 0 0-.118.248 8.754 8.754 0 0 1-.339 2.76 9.625 9.625 0 0 1-.934 2.216 9.426 9.426 0 0 1-1.528 2.004 8.755 8.755 0 0 1-2.938 1.938 9.464 9.464 0 0 1-3.221.668 9.498 9.498 0 0 1-2.319-.186 8.803 8.803 0 0 1-2.22-.77c-.29-.151-.577-.308-.864-.461.004-.012.008-.024.014-.035z"/>
</svg>
