<svg xmlns="http://www.w3.org/2000/svg" viewBox="0 0 20 30" width="20" height="30">
	<defs>
		<image width="20" height="30" id="img1" href="data:image/png;base64,iVBORw0KGgoAAAANSUhEUgAAABQAAAAeAQMAAAAW3KwoAAAAAXNSR0IB2cksfwAAAAZQTFRFEA8O////xIB9pAAAABZJREFUeJxjYLD/wEAM/n+AgShMpHkAnC0pI6teuo0AAAAASUVORK5CYII="/>
	</defs>
	<style>
		tspan { white-space:pre }
	</style>
	<use id="Background" href="#img1" x="0" y="0" />
</svg>